26   0.2798240469208212
100   0.2807038123167156
178   0.2809970674486804
243   0.2814369501466276
313   0.28217008797653964
386   0.2827565982404693
456   0.2836363636363637
513   0.2842228739002933
591   0.28510263929618773
635   0.28583577712609975
705   0.2864222873900294
753   0.2871554252199414
809   0.2880351906158358
853   0.28891495601173023
918   0.2897947214076247
979   0.2906744868035191
1061   0.29199413489736076
1118   0.2934604105571848
1192   0.29448680351906165
1272.913043478261   0.2959530791788857
1324.086956521739   0.2969794721407625
1367.217391304348   0.2977126099706745
1405.3478260869565   0.2984457478005865
1444.4782608695655   0.299325513196481
1487.9565217391305   0.3002052785923754
1535.7826086956525   0.3013782991202346
1579.2608695652175   0.30240469208211146
1635.782608695652   0.30401759530791794
1671.5652173913045   0.3046041055718475
1708.3478260869565   0.3059237536656892
1756.173913043478   0.3068035190615836
1815.0434782608695   0.30812316715542526
1857.5217391304345   0.3091495601173021
1903                   0.3104692082111437
1947.8260869565215   0.311642228739003
1995.6521739130435   0.3129618768328446
